{
  "type": "service_account",
  "project_id": "somebody-1234567",
  "private_key_id": "XXXXXXXXXXXXXXXX",
  "private_key": "-----BEGIN PRIVATE KEY-----\nXXXXXXXXXXXX\n-----END PRIVATE KEY-----\n",
  "client_email": "googlesheet@somebody-1234567.iam.gserviceaccount.com",
  "client_id": "99999999999999999999999",
  "auth_uri": "https://accounts.google.com/o/oauth2/auth",
  "token_uri": "https://accounts.google.com/o/oauth2/token",
  "auth_provider_x509_cert_url": "https://www.googleapis.com/oauth2/v1/certs",
  "client_x509_cert_url": "https://www.googleapis.com/robot/v1/metadata/x509/googlesheet%40sc-playground-192302.iam.gserviceaccount.com"
}
